Collaborative Data Science Project
…
cat("\n--- Pairwise Centroid Distances (permil, Euclidean) ---\n")

--- Pairwise Centroid Distances (permil, Euclidean) ---

centroid_dist %>%
  arrange(Distance) %>%
  mutate(Distance = round(Distance, 3)) %>%
  print(n = 20)

# A tibble: 42 × 3
   Group1             Group2             Distance
   <chr>              <chr>                 <dbl>
 1 Mendoza Humans     Salvatierra Humans    0.782
 2 Salvatierra Humans Mendoza Humans        0.782
 3 Armadillos         Mendoza Humans        0.977
 4 Mendoza Humans     Armadillos            0.977
 5 Mendoza Humans     Muscovy Duck          1.41 
 6 Muscovy Duck       Mendoza Humans        1.41 
 7 Armadillos         Muscovy Duck          1.64 
 8 Muscovy Duck       Armadillos            1.64 
 9 Armadillos         Salvatierra Humans    1.71 
10 Salvatierra Humans Armadillos            1.71 
11 Muscovy Duck       Salvatierra Humans    1.94 
12 Salvatierra Humans Muscovy Duck          1.94 
13 Riverines          Rodents               3.55 
14 Rodents            Riverines             3.55 
15 Riverines          Ungulates             3.72 
16 Ungulates          Riverines             3.72 
17 Muscovy Duck       Rodents               4.48 
18 Rodents            Muscovy Duck          4.48 
19 Rodents            Salvatierra Humans    4.89 
20 Salvatierra Humans Rodents               4.89 
# ℹ 22 more rows
…
